$TTL    604800
@       IN       SOA     dns90.a3.pm. dns90.a3.pm. (
                               2         ; Serial
                          604800         ; Refresh
                           86400         ; Retry
                         2419200         ; Expire
                          604800 )       ; Negative Cache TTL
;
@        IN      NS      dns90.a3.pm.
@        IN      A       127.0.0.1
*        IN      A       127.0.0.1
conntest IN      A       95.216.149.205
